[
  {
    "_id": {
      "$oid": "5d89fe0cd918e31bfa32498e"
    },
    "name": "sport",
    "totalEvents": 3,
    "actualEvents": 3,
    "images": {}
  },
  {
    "_id": {
      "$oid": "5d8f0e45d918e34d6f23ba7e"
    },
    "name": "science",
    "totalEvents": 0,
    "actualEvents": 0,
    "images": {}
  },
  {
    "_id": {
      "$oid": "5d8f0e58d918e34d6f23ba7f"
    },
    "name": "gaming",
    "totalEvents": 0,
    "actualEvents": 0,
    "images": {}
  },
  {
    "_id": {
      "$oid": "5d8f0e7fd918e34d6f23ba81"
    },
    "name": "music",
    "totalEvents": 2,
    "actualEvents": 2,
    "images": {}
  },
  {
    "_id": {
      "$oid": "5d8f0e85d918e34d6f23ba82"
    },
    "name": "movie",
    "totalEvents": 0,
    "actualEvents": 0,
    "images": {}
  },
  {
    "_id": {
      "$oid": "5d8f0e9cd918e34d6f23ba83"
    },
    "name": "food",
    "totalEvents": 3,
    "actualEvents": 3,
    "images": {}
  },
  {
    "_id": {
      "$oid": "5d8f0ea6d918e34d6f23ba84"
    },
    "name": "technology",
    "totalEvents": 0,
    "actualEvents": 0,
    "images": {}
  },
  {
    "_id": {
      "$oid": "5d8f0eb1d918e34d6f23ba85"
    },
    "name": "animals",
    "totalEvents": 0,
    "actualEvents": 0,
    "images": {}
  }
]

